<svg xmlns="http://www.w3.org/2000/svg" viewBox="0 0 512 512" width="48" height="48">
	<style>
		tspan { white-space:pre }
		.shp0 { fill: #fd003a } 
		.shp1 { fill: #e50027 } 
	</style>
	<path id="Layer" fill-rule="evenodd" class="shp0" d="M436 180C436 212.4 427.3 244.5 410.5 272.1L269.3 504.62C266 510.32 259.7 512.71 254 511.82C249.8 511.22 246.2 508.81 243.8 504.91L103 274.5C85.3 246.3 76 213.6 76 180C76 80.7 156.7 0 256 0C355.3 0 436 80.7 436 180ZM346 180C346 130.5 305.5 90 256 90C206.5 90 166 130.5 166 180C166 229.2 205.6 270 256 270C307 270 346 228.9 346 180Z" />
	<path id="Layer" class="shp1" d="M256 0L256 90C305.5 90 346 130.5 346 180C346 228.9 307 270 256 270L256 511.99C261.12 512.11 266.38 509.66 269.3 504.62L410.5 272.1C427.3 244.5 436 212.4 436 180C436 80.7 355.3 0 256 0Z" />
	<g id="Layer">
	</g>
	<g id="Layer">
	</g>
	<g id="Layer">
	</g>
	<g id="Layer">
	</g>
	<g id="Layer">
	</g>
	<g id="Layer">
	</g>
	<g id="Layer">
	</g>
	<g id="Layer">
	</g>
	<g id="Layer">
	</g>
	<g id="Layer">
	</g>
	<g id="Layer">
	</g>
	<g id="Layer">
	</g>
	<g id="Layer">
	</g>
	<g id="Layer">
	</g>
	<g id="Layer">
	</g>
</svg>