<svg width="31" height="16" viewBox="0 0 31 16" fill="none" xmlns="http://www.w3.org/2000/svg">
<path d="M1.23039 7.29289C0.839863 7.68341 0.839863 8.31658 1.23039 8.7071L7.59435 15.0711C7.98487 15.4616 8.61804 15.4616 9.00856 15.0711C9.39909 14.6805 9.39909 14.0474 9.00856 13.6569L3.35171 8L9.00856 2.34314C9.39909 1.95262 9.39909 1.31945 9.00856 0.928929C8.61804 0.538404 7.98487 0.538404 7.59435 0.928928L1.23039 7.29289ZM30.0625 7L1.93749 7L1.93749 9L30.0625 9L30.0625 7Z" fill="#77BC1F"/>
</svg>
